[
  {
    "kind": "Dashboard",
    "metadata": {
      "name": "FinalResultsDashboard",
      "project": "WorkshopProject",
      "created_at": "2023-01-15T00:00:00Z",
      "updated_at": "2023-01-15T00:00:00Z",
      "version": 0
    },
    "spec": {
      "duration": "5m",
      "variables": [
        { "kind": "TextVariable", "spec": { "name": "job", "value": "node" } },
        {
          "kind": "ListVariable",
          "spec": {
            "name": "instance",
            "plugin": {
              "kind": "StaticListVariable",
              "spec": {
                "values": [
                  "demo.do.prometheus.io:9100",
                  "demo.do.prometheus.io:3000",
                  "demo.promlabs.com:9100"
                ]
              }
            }
          }
        },
        {
          "kind": "ListVariable",
          "spec": {
            "name": "interval",
            "plugin": {
              "kind": "StaticListVariable",
              "spec": { "values": ["1m", "5m"] }
            }
          }
        }
      ],
      "panels": {
        "statMemory": {
          "kind": "Panel",
          "spec": {
            "display": {
              "name": "Memory Usage",
              "description": "This is my first ever stat chart!"
            },
            "plugin": {
              "kind": "StatChart",
              "spec": {
                "query": {
                  "kind": "TimeSeriesQuery",
                  "spec": {
                    "plugin": {
                      "kind": "PrometheusTimeSeriesQuery",
                      "spec": {
                        "query": "100 - ((node_memory_MemAvailable_bytes{job='$job',instance=~'$instance'} * 100) / node_memory_MemTotal_bytes{job='$job',instance=~'$instance'})"
                      }
                    }
                  }
                },
                "calculation": "LastNumber",
                "unit": { "kind": "Percent" }
              }
            }
          }
        },
        "statTotalMemory": {
          "kind": "Panel",
          "spec": {
            "display": {
              "name": "Total Memory",
              "description": "This is my second stat chart!"
            },
            "plugin": {
              "kind": "StatChart",
              "spec": {
                "query": {
                  "kind": "TimeSeriesQuery",
                  "spec": {
                    "plugin": {
                      "kind": "PrometheusTimeSeriesQuery",
                      "spec": {
                        "query": "node_memory_MemTotal_bytes{job='$job',instance=~'$instance'}"
                      }
                    }
                  }
                },
                "calculation": "LastNumber",
                "unit": { "kind": "Bytes", "decimal_places": 1 }
              }
            }
          }
        },
        "gaugeTotalMemory": {
          "kind": "Panel",
          "spec": {
            "display": {
              "name": "Total Memory Gauge",
              "description": "This is my first gauge chart!"
            },
            "plugin": {
              "kind": "GaugeChart",
              "spec": {
                "query": {
                  "kind": "TimeSeriesQuery",
                  "spec": {
                    "plugin": {
                      "kind": "PrometheusTimeSeriesQuery",
                      "spec": { "query": "node_time_seconds{job=\"node\",instance=\"$instance\"} - node_boot_time_seconds{job=\"node\",instance=\"$instance\"}" }
                    }
                  }
                },
                "calculation": "LastNumber",
                "unit": {
                  "kind": "Decimal"
                },
                "max": 95000000,
                "thresholds": {
                  "steps": [
                    { "value": 71000000 },
                    { "value": 82000000 }
                  ]
                }
              }
            }
          }
        },
        "gaugeMemory": {
          "kind": "Panel",
          "spec": {
            "display": {
              "name": "Memory Used Gauge",
              "description": "This is my second gauge chart!"
            },
            "plugin": {
              "kind": "GaugeChart",
              "spec": {
                "query": {
                  "kind": "TimeSeriesQuery",
                  "spec": {
                    "plugin": {
                      "kind": "PrometheusTimeSeriesQuery",
                      "spec": {
                        "query": "100 - ((node_memory_MemAvailable_bytes{job='$job',instance=~'$instance'} * 100) / node_memory_MemTotal_bytes{job='$job',instance=~'$instance'})"
                      }
                    }
                  }
                },
                "calculation": "LastNumber",
                "unit": { "kind": "Percent" },
                "thresholds": { "steps": [{ "value": 85 }, { "value": 95 }] }
              }
            }
          }
        },
        "lineChartMemoryTotals": {
          "kind": "Panel",
          "spec": {
            "display": {
              "name": "Memory Totals Line Chart",
              "description": "This is my first line (time series) chart!"
            },
            "plugin": {
              "kind": "TimeSeriesChart",
              "spec": {
                "legend": {
                  "position": "bottom"
                },
                "queries": [
                  {
                    "kind": "TimeSeriesQuery",
                    "spec": {
                      "plugin": {
                        "kind": "PrometheusTimeSeriesQuery",
                        "spec": {
                          "query": "node_memory_Buffers_bytes{job=\"node\",instance=\"$instance\"}"
                        }
                      }
                    }
                  },
                  {
                    "kind": "TimeSeriesQuery",
                    "spec": {
                      "plugin": {
                        "kind": "PrometheusTimeSeriesQuery",
                        "spec": {
                          "query": "node_memory_Cached_bytes{job=\"node\",instance=\"$instance\"}"
                        }
                      }
                    }
                  },
                  {
                    "kind": "TimeSeriesQuery",
                    "spec": {
                      "plugin": {
                        "kind": "PrometheusTimeSeriesQuery",
                        "spec": {
                          "query": "node_memory_MemFree_bytes{job=\"node\",instance=\"$instance\"}"
                        }
                      }
                    }
                  }
                ],
                "unit": {
                  "kind": "Bytes"
                }
              }
            }
          }
        },
        "lineChartLoad": {
          "kind": "Panel",
          "spec": {
            "display": {
              "name": "Load Thresholds Line Chart",
              "description": "This is my second line (time series) chart!"
            },
            "plugin": {
              "kind": "TimeSeriesChart",
              "spec": {
                "queries": [
                  {
                    "kind": "TimeSeriesQuery",
                    "spec": {
                      "plugin": {
                        "kind": "PrometheusTimeSeriesQuery",
                        "spec": {
                          "query": "node_load15{instance=\"$instance\",job=\"node\"}"
                        }
                      }
                    }
                  },
                  {
                    "kind": "TimeSeriesQuery",
                    "spec": {
                      "plugin": {
                        "kind": "PrometheusTimeSeriesQuery",
                        "spec": {
                          "query": "node_load1{instance=\"$instance\",job=\"node\"}"
                        }
                      }
                    }
                  }
                ],
                "thresholds": {
                  "steps": [
                    {
                      "name": "Alert: Warning",
                      "value": 0.4
                    },
                    {
                      "name": "Alert: Critical",
                      "value": 0.75
                    }
                  ]
                },
                "y_axis": {
                  "show": true,
                  "unit": {
                    "decimal_places": 1,
                    "kind": "Percent"
                  }
                }
              }
            }
          }
        },
        "teamDocs": {
          "kind": "Panel",
          "spec": {
            "display": {
              "name": "Team documentation",
              "description": "This is my first documentation panel!"
            },
            "plugin": {
              "kind": "Markdown",
              "spec": {
                "text": "### Troubleshooting starts here:\nOn this page, you'll find all the help you need on this team.\n\nWho you gonna call? [Ghostbusters direct line](https://chronosphere.io?utm_source=schabell-blog&utm_medium=eric)\n| Dashboard | Link |\n| :----------- | :----------- |\n| Dashboard 1 | [link](https://chronosphere.io?utm_source=schabell-blog&utm_medium=eric) |\n| Dashboard 2 | [link](https://chronosphere.io?utm_source=schabell-blog&utm_medium=eric) | \n\n"
              }
            }
          }
        },
        "systemStatusMultiGauge": {
          "kind": "Panel",
          "spec": {
            "display": {
              "name": "Current system status",
              "description": "This is my first multi series gauge chart!"
            },
            "plugin": {
              "kind": "GaugeChart",
              "spec": {
                "query": {
                  "kind": "TimeSeriesQuery",
                  "spec": {
                    "plugin": {
                      "kind": "PrometheusTimeSeriesQuery",
                      "spec": {
                        "series_name_format": "{{mode}} mode - {{job}} {{instance}}",
                        "query": "avg without (cpu)(rate(node_cpu_seconds_total{job='$job',instance=~'$instance',mode!=\"nice\",mode!=\"steal\",mode!=\"irq\"}[$interval]))"
                      }
                    }
                  }
                },
                "calculation": "LastNumber",
                "unit": { "kind": "PercentDecimal" },
                "thresholds": {
                  "steps": [ { "value": 0.2 }, { "value": 0.35 } ]
                }
              }
            }
          }
        }
      },
      "layouts": [
        {
          "kind": "Grid",
          "spec": {
            "display": { "title": "Team Status", "collapse": { "open": true } },
            "items": [
              {
                "x": 0,
                "y": 0,
                "width": 6,
                "height": 8,
                "content": {
                  "$ref": "#/spec/panels/teamDocs"
                }
              },
              {
                "x": 6,
                "y": 0,
                "width": 18,
                "height": 6,
                "content": {
                  "$ref": "#/spec/panels/systemStatusMultiGauge"
                }
              }
            ]
          }
        },
        {
          "kind": "Grid",
          "spec": {
            "display": { "title": "Line Chart Row", "collapse": { "open": true } },
            "items": [
              {
                "x": 0,
                "y": 0,
                "width": 12,
                "height": 6,
                "content": {
                  "$ref": "#/spec/panels/lineChartMemoryTotals"
                }
              },
              {
                "x": 12,
                "y": 0,
                "width": 12,
                "height": 6,
                "content": {
                  "$ref": "#/spec/panels/lineChartLoad"
                }
              }
            ]
          }
        },
        {
          "kind": "Grid",
          "spec": {
            "display": { "title": "Stats Chart Row", "collapse": { "open": true } },
            "items": [
              {
                "x": 0,
                "y": 2,
                "width": 2,
                "height": 3,
                "content": {
                  "$ref": "#/spec/panels/statMemory"
                }
              },
              {
                "x": 0,
                "y": 4,
                "width": 2,
                "height": 3,
                "content": {
                  "$ref": "#/spec/panels/statTotalMemory"
                }
              },
              {
                "x": 2,
                "y": 0,
                "width": 6,
                "height": 6,
                "content": {
                  "$ref": "#/spec/panels/gaugeTotalMemory"
                }
              },
              {
                "x": 8,
                "y": 0,
                "width": 6,
                "height": 6,
                "content": {
                  "$ref": "#/spec/panels/gaugeMemory"
                }
              }
            ]
          }
        }
      ]
    }
  }
]